Change Component Designator: Old Designator=C? New Designator=C1
Change Component Designator: Old Designator=C? New Designator=C2
Change Component Designator: Old Designator=C? New Designator=C3
Change Component Designator: Old Designator=C? New Designator=C4
Change Component Designator: Old Designator=C? New Designator=C5
Change Component Designator: Old Designator=C? New Designator=C6
Change Component Designator: Old Designator=C? New Designator=C7
Change Component Designator: Old Designator=C? New Designator=C8
Change Component Designator: Old Designator=D? New Designator=D1
Change Component Designator: Old Designator=D? New Designator=D2
Change Component Designator: Old Designator=D? New Designator=D3
Change Component Designator: Old Designator=D? New Designator=D4
Change Component Designator: Old Designator=ICSP New Designator=ICSP1
Change Component Designator: Old Designator=J? New Designator=J1
Change Component Designator: Old Designator=MAX485 New Designator=MAX1
Change Component Designator: Old Designator=RT? New Designator=RT1
Change Component Designator: Old Designator=RT? New Designator=RT2
Change Component Designator: Old Designator=RT? New Designator=RT3
Change Component Designator: Old Designator=RT? New Designator=RT4
Change Component Designator: Old Designator=RT? New Designator=RT5
Change Component Designator: Old Designator=RT? New Designator=RT6
Change Component Designator: Old Designator=RT? New Designator=RT7
Change Component Designator: Old Designator=RT? New Designator=RT8
Change Component Designator: Old Designator=RT? New Designator=RT9
Change Component Designator: Old Designator=RT? New Designator=RT10
Change Component Designator: Old Designator=RT? New Designator=RT11
Change Component Designator: Old Designator=RT? New Designator=RT12
Change Component Designator: Old Designator=RT? New Designator=RT13
Change Component Designator: Old Designator=RT? New Designator=RT14
Change Component Designator: Old Designator=RT? New Designator=RT15
Change Component Designator: Old Designator=RT? New Designator=RT16
Change Component Designator: Old Designator=RT? New Designator=RT17
Change Component Designator: Old Designator=RT? New Designator=RT18
Change Component Designator: Old Designator=RT? New Designator=RT19
Change Component Designator: Old Designator=RT? New Designator=RT20
Change Component Designator: Old Designator=TEST New Designator=TEST1
Change Component Designator: Old Designator=TEST New Designator=TEST2
Change Component Designator: Old Designator=TEST New Designator=TEST3
Change Component Designator: Old Designator=TEST New Designator=TEST4
Change Component Designator: Old Designator=TEST New Designator=TEST5
Change Component Designator: Old Designator=TEST New Designator=TEST6
Change Component Designator: Old Designator=TEST New Designator=TEST7
Change Component Designator: Old Designator=TEST New Designator=TEST8
Change Component Designator: Old Designator=TEST New Designator=TEST9
Change Component Designator: Old Designator=U? New Designator=U2
Change Component Part ID : Designator=U2 Old Part ID =1 New Part ID =2
Change Component Designator: Old Designator=U? New Designator=U4
Change Component Part ID : Designator=U4 Old Part ID =1 New Part ID =2
Change Component Designator: Old Designator=U? New Designator=U5
Change Component Part ID : Designator=U5 Old Part ID =1 New Part ID =2
Change Component Designator: Old Designator=U? New Designator=U2
Change Component Part ID : Designator=U2 Old Part ID =2 New Part ID =1
Change Component Designator: Old Designator=U? New Designator=U4
Change Component Part ID : Designator=U4 Old Part ID =2 New Part ID =1
Change Component Designator: Old Designator=U? New Designator=U5
Change Component Part ID : Designator=U5 Old Part ID =2 New Part ID =1
Change Component Designator: Old Designator=U? New Designator=U1
Change Component Designator: Old Designator=U? New Designator=U3
