Change Component Designator: Old Designator=DIODO_0805 New Designator=DIODO_1
Change Component Designator: Old Designator=DIODO_0805 New Designator=DIODO_2
Change Component Designator: Old Designator=DIODO_0805 New Designator=DIODO_3
Change Component Designator: Old Designator=DIODO_0805 New Designator=DIODO_4
Change Component Designator: Old Designator=MAX485 New Designator=MAX1
